{
  "items" : [
    {
      "name": "The Lion King",
      "rating": 3
    },
    {
      "name": "Pink Floyd - The Dark Side of the Moon",
      "rating": 2
    },
    {
      "name": "Yesterday (movie)",
      "rating": 1
    },
    {
      "name": "The Beatles - The White Album",
      "rating": 2
    },
    {
      "name": "Metallica - The Black Album",
      "rating": 2
    },
    {
      "name": "Bohemia Suburbana - Sub",
      "rating": 4
    },
    {
      "name": "Inception",
      "rating": 3
    },
    {
      "name": "The Time Traveler's Wife",
      "rating": 1
    },
    {
      "name": "Yowamushi Pedal",
      "rating": 2
    },
    {
      "name": "Isaac Asimov - Caves of Steel",
      "rating": 2
    },
    {
      "name": "Jules Verne - 20,000 Leagues Under the Sea",
      "rating": 3
    }
  ]
}